﻿
   *** showdownjs v1.8.6 (2017-Dec-22) ***

   ————————————————————————————————————————————————————————————
   Project log :

   download 20180615°0720
   downloadfro : http://showdownjs.com/
   file        : 20180615o0245.showdownjs-showdown-1.8.6-0-ga8bcde1.zip (266 066 bytes)
   extracted   : \showdownjs-showdown-ce5e16b\dist\showdown.js (173 295 bytes) [file 20180615°0721]
   extracted   : \showdownjs-showdown-ce5e16b\dist\showdown.min.js (99 095 bytes) [file 20180615°0722]
   license     :
   copyright   :
   authors     :
   note        :
   ◦

   folder 20180615°0911
   url : https://downtown.trilo.de/svn/daftaridev/trunk/daftari/jslibs/fadeinfiles/showdown
   title : ShowdownJs
   note :
   ◦

   ———————————————————————
   [file 20180615°0912] ◦Ω
