﻿
   About folder daftari/phplibs/phpsvnclient/

   *** phpsvnclient.r63 ***

   ————————————————————————————————————————————————————————————
   ———————————————————————
   [file 20161008°0812] ◦Ω
